{
  "ftp": {
    "host": "your.domain.or.ip",
    "user": "username",
    "password": "password",
    "parallel": "10",
    "dest": "remote/folder"
  },
  "sfmc": {
    "DEBUG": false,
    "RANDOM_PREFIX": "FLO-",
    "API_CLIENT_ID": "your client id here",
    "API_CLIENT_SECRET": "your client secret here",
    "API_TRIGGERED_SEND": "TS_FLOTTE",
    "CAMPAIGN_CODE": "T.M.2.3.C.TP.001",
    "EXTERNAL_SOURCE": "promo.tmi.sfmc.marketingwebsite",
    "SOURCE_FORM": "richieste.toyota.it/form-flotte/.Toyota.AQ.Webform"
  }
}